2019-11-30 11:32:59,336 [8] ERROR CommonHelper.Helper.Logger [(null)] - BanNhaAZ.Areas.Admin.Controllers.ServicessController.Create()()
	- data : Core.Models.EF.Services
	- System.FormatException: Input string was not in a correct format.
   at System.Number.StringToNumber(String str, NumberStyles options, NumberBuffer& number, NumberFormatInfo info, Boolean parseDecimal)
   at System.Number.ParseInt32(String s, NumberStyles style, NumberFormatInfo info)
   at System.Int16.Parse(String s, NumberStyles style, NumberFormatInfo info)
   at System.Convert.ToInt16(String value)
   at BanNhaAZ.Areas.Admin.Controllers.ServicessController.<Update>d__3.MoveNext() in D:\WWW\BOOP\BanNhaAZ\BanNhaAZ\Areas\Admin\Controllers\ServicesController.cs:line 118
